﻿,CONCEPTS,SYNONYMS
0,密集调研,
1,燃料乙醇,
2,海洋捕捞,
3,直播,
4,河南自贸区,
5,医药商业,
6,浦东新区,
7,地方国企,
8,芯片,
9,船舶制造,
10,脑科学,
11,人工景点,
12,CAR-T疗法,"CAR-T,疗法"
13,O2O,
14,国企改革,
15,新疆振兴,
16,通信,
17,采掘服务,
18,铁路设备,
19,壳公司,
20,可燃冰,
21,化学制药,
22,金属制品,
23,超市,
24,自行车,
25,贸易,
26,广西,
27,国产芯片,
28,运输设备,
29,水泥制造,
30,动物疫苗,
31,网络规划建设,
32,综合电力设备商,
33,通信运营,
34,建材,
35,WIFI,
36,头盔,
37,金融,
38,种植业,
39,大气治理,
40,油气改革,
41,电气设备,
42,数字货币,
43,航运,
44,养鸡,
45,钾肥,
46,地产,
47,无线耳机,
48,智慧安防,
49,应急产业,应急
50,青蒿素,
51,大消费,
52,纺织服装,
53,共享单车,
54,制造业单项冠军企业,
55,消费电子代工,
56,半导体封测,
57,双百企业,
58,糖产业,糖
59,异质结电池(HIT),"异质结电池,HIT,异质结电池HIT"
60,印刷包装机械,
61,塑料,
62,5G,
63,超宽带技术,
64,智慧城市,
65,其它视听器材,
66,渔业,
67,富勒烯,
68,房屋建设,
69,石油加工,
70,休闲服装,
71,上海自由贸易港,
72,VR&AR,
73,免税店,
74,中药,
75,农业综合,
76,煤化工,
77,聚碳酸酯,
78,云办公,
79,黑色家电,
80,葡萄酒,
81,光伏,
82,仿制药,
83,食品,
84,高校,
85,黑龙江自贸区,
86,期货,
87,氢能,
88,氟化工及制冷剂,
89,成交主力,
90,地面兵装,
91,触板,
92,饮料,
93,海南自由贸易港,
94,智能电视,
95,新疆,
96,锂,
97,外资并购,
98,智慧政务,
99,食品加工,
100,稀土,
101,非金属新材料,
102,冷链,
103,雄安,
104,物联网,
105,智能手表,
106,人脸识别,
107,建筑节能,
108,碳纤维,
109,酒店,
110,物流骨干网,
111,农药,
112,汇金,
113,移动支付,
114,印染,
115,服务器,
116,水泥,
117,珠三角,
118,维生素,
119,手机屏幕,
120,特斯拉,
121,国企混改,
122,食品饮料,
123,无人银行,
124,锦纶(尼龙),"锦纶,尼龙,锦纶尼龙"
125,证金,
126,人工智能,
127,主题公园,
128,智慧路灯,
129,高铁,
130,智能音箱,
131,白色家电,
132,新能源车零部件,
133,军工,
134,汽车销售,
135,耐火材料,
136,振兴东北,
137,蚂蚁金服,
138,迪士尼,
139,化学纤维,
140,火电设备,
141,其它通用机械,
142,电子制造,
143,橡胶,
144,江苏自贸区,
145,猪瘟疫苗,
146,医美,
147,煤炭开采,
148,无线充电,
149,核电,
150,金控平台,
151,石墨电极,
152,标普道琼斯,
153,医药生物,
154,化学制剂,
155,烧碱,
156,百度,
157,光学光电子,
158,太赫兹,
159,工业自动化,
160,虚拟现实,
161,油气钻采服务,
162,电路板,
163,智能IC卡,"IC卡,智能"
164,林业,
165,物流,
166,页岩气,
167,油服,
168,钒,
169,氮化镓(GaN),"氮化镓,GaN,氮化镓GaN"
170,通信配套服务,
171,海工装备,
172,超载治理,
173,家电,
174,苹果期货,
175,山西国企改革,
176,年报季报,
177,指纹识别,
178,软饮料,
179,新材料,
180,禽流感,
181,营销传播,
182,肉制品,
183,玩具,
184,山东国企改革,
185,流感,
186,护城河,
187,手游,
188,中非合作,
189,绿色节能照明,
190,通信设备,
191,石油开采,
192,转基因,
193,其它电源设备,
194,一带一路,
195,商用载客车,
196,无感支付,
197,机械,
198,生物育种,
199,联通混改,
200,合同能源管理,
201,涤纶,
202,风电,
203,农垦,
204,计算机设备,
205,交通运输,
206,纺织制造,
207,高校系,
208,超硬材料,
209,玻纤,
210,化工,
211,工业互联网,
212,云游戏,
213,航母,
214,IPv6,
215,南北船合并,
216,磷酸铁锂电池,
217,6G,
218,手势识别,
219,氢氟酸,
220,工业4.0,
221,钛白粉,
222,雄安新区,
223,磷化工及磷酸盐,
224,文娱用品,
225,民营医院,
226,邮轮游艇,
227,网络优化,
228,云计算数据中心,
229,精准医疗,
230,专业连锁,
231,机器人,
232,卫星互联网,
233,中字头,
234,证券,
235,3D感应,
236,PVC,
237,锌,
238,激光,
239,数字中国,
240,长三角,
241,网络彩票,
242,影视动漫,
243,连板,
244,机床,
245,公交,
246,草甘膦,
247,有色金属,
248,充电桩,
249,小基站,
250,共享汽车,
251,通信传输设备,
252,洗衣机,
253,甲醇,
254,锂电池,
255,房屋租赁,
256,计算机,
257,文化传媒,
258,卫星导航,
259,啤酒,
260,汽车胎压监测,
261,中小创蓝筹,
262,资产重组,
263,休闲食品,
264,炭黑,
265,焦炭加工,
266,机顶盒,
267,宁德时代产业链,宁德时代链
268,智能电网,
269,海南自贸港,
270,光纤,
271,赛马,
272,摘帽,
273,粘胶短纤,
274,国产操作系统,
275,密码学,
276,LNG,
277,航空装备,
278,供销社,
279,光学元件,
280,低压设备,
281,超级电容,
282,建筑材料,
283,半导体,
284,化妆品,
285,航空发动机,
286,成渝城市群,
287,长三角一体化,
288,重型机械,
289,民爆用品,
290,高压设备,
291,铝,
292,双百行动,
293,无人商店,
294,通用机械,
295,草铵膦,
296,显示面板,
297,钢结构,
298,平面媒体,
299,IDC,
300,镍,
301,中科院系,
302,景点,
303,化学原料,
304,智慧农业,
305,PPP,
306,网红,
307,北斗导航,
308,射频及天线,
309,生物疫苗,
310,粘胶,
311,纺织化学用品,
312,数字乡村农村电商,
313,旅游,
314,快递,
315,民爆,
316,铁路建设,
317,汽车整车,
318,消毒液,
319,智能仪表,
320,华为HMS,HMS
321,通用航空,
322,生物安全,
323,白酒,
324,工业大麻,
325,智慧停车,
326,新能源汽车,
327,化学工程,
328,污水处理,
329,汽车零部件,
330,原油储运,
331,水产养殖,
332,PM2.5,
333,电机,
334,远程办公,
335,中朝经济特区,
336,共享经济,
337,小米产业链,小米链
338,预增,
339,电动物流车,
340,笔记本电脑,
341,5G消息,
342,半导体分立器件,
343,机床工具,
344,休闲服务,
345,呼吸机,
346,油气管网,
347,网络游戏,
348,外贸受益,
349,丝绸之路,
350,传感器,
351,海西,
352,西部大开发,
353,液态金属,
354,电子烟,
355,聚丙烯,
356,安全生产,
357,苹果,
358,大基建,
359,自由贸易港,
360,智能穿戴,
361,靶材,
362,毛纺,
363,智慧物流,
364,电子发票,
365,石油化工,
366,新零售,
367,铜,
368,福建自贸,
369,液晶显示,
370,医药电商,
371,保健品,
372,国产软硬件,
373,ETC,
374,超级高铁,
375,地热,
376,磁悬浮,
377,信托,
378,篮球,
379,DRAM(内存),"DRAM,内存,DRAM内存"
380,包装印刷,
381,猪产业,猪
382,燃气,
383,化肥,
384,白糖,
385,丙烯,
386,储能设备,
387,美丽中国,
388,装饰园林,
389,汽车服务,
390,聚酰亚胺,
391,动力电池,
392,操作系统,
393,光刻机(胶),"光刻机,光刻胶"
394,京津冀一体化,
395,PTA,
396,专用设备,
397,园林,
398,MLCC,
399,海南,
400,华为汽车,
401,无机盐,
402,基因测序,
403,医疗改革,
404,新疆国企改革,
405,设计,
406,专业工程,
407,国际工程承包,
408,移动互联网服务,
409,燃料电池,
410,生物实验室,
411,智能制造,
412,跨境电商,
413,维纶,
414,保险,
415,高商誉,
416,首板,
417,磁性材料,
418,医保,
419,稀土永磁,
420,独角兽,
421,家具,
422,智能物流,
423,环氧树脂,
424,纺织服装设备,
425,锆,
426,音乐产业,音乐
427,显示器件,
428,小金属,
429,港珠澳大桥,
430,汽车后市场,
431,一般物业经营,
432,高端装备制造,
433,吉利,
434,网红经济,
435,MDI,
436,出口型企业,
437,手机电池,
438,机械设备,
439,黄酒,
440,超高清视频,
441,泛在电力物联网,
442,电源设备,
443,自然景点,
444,国防军工,
445,复合肥,
446,饮料制造,
447,食药品溯源,
448,日用化学产品,
449,浙江国企改革,
450,鸡产业,鸡
451,3D传感,
452,综合,
453,土地流转,
454,独家药,
455,电改,
456,鲲鹏,
457,港口,
458,北部湾自贸区,
459,女装,
460,游戏,
461,医疗信息化,
462,闪存,
463,内蒙古,
464,新能源整车,
465,水务,
466,制冷空调设备,
467,足球,
468,中国国际进口博览会,
469,3D打印,
470,动力电池回收,
471,水利工程,
472,量子技术,
473,房地产,
474,数字孪生,
475,稀有金属,
476,网络可视化,
477,阿尔茨海默病,
478,影视,
479,K-12教育,
480,环保,
481,消费电子产业,消费电子
482,基因检测,
483,军工研究所,
484,彩电,
485,旅游综合,
486,鞋帽,
487,电梯,
488,大基金二期,
489,调味发酵品,
490,新能源,
491,纳米银,
492,铁路运输,
493,园林工程,
494,上海国企改革,
495,高速公路,
496,有线电视网络,
497,固废处理,
498,珠宝首饰,
499,乡村振兴,
500,环氧丙烷,
501,矿山智能,
502,养老金,
503,碳基半导体,
504,手机外壳,
505,专业零售,
506,肺炎,
507,万达系,
508,空调,
509,锂电正极,
510,教育,
511,氟化工,
512,WiFi,
513,医废处理,
514,IGBT,
515,电子商务,
516,农林牧渔,
517,业绩爆雷,
518,纯碱,
519,分立器件,
520,粮食种植,
521,小程序,
522,征信,
523,家用电器,
524,非银金融,
525,仪器仪表,
526,氯碱,
527,其它专用机械,
528,互联网金融,
529,磨具磨料,
530,破净,
531,挖掘机,
532,周期性行业,
533,火电,
534,有色,
535,机构调研,
536,显示屏制造装备,
537,装修装饰,
538,手机陶瓷外壳,
539,锂电负极,
540,京津冀,
541,医药,
542,锂电电解液,
543,高频PCB,"PCB,高频"
544,粤港澳自贸区,
545,药品信息化追溯,
546,老基建,
547,宽带提速,
548,新型显示技术,
549,PD-1抑制剂,"PD-1,抑制剂"
550,移动互联网,
551,国产软件,
552,大豆,
553,黄金,
554,传媒,
555,环杭州湾大湾区,
556,金属非金属新材料,
557,营销服务,
558,科技园区,
559,区块链,
560,可转债预案,
561,新型病毒防治,
562,软件开发,
563,内燃机,
564,无人驾驶,
565,汽车,
566,晶圆产业,晶圆
567,工业气体,
568,北京城市规划,
569,商业贸易,
570,湖北,
571,养猪,
572,中国广电,
573,可转债,
574,横琴新区,
575,西藏振兴,
576,国家队,
577,二胎,
578,定增破发,
579,机场,
580,磷化工,
581,台资,
582,锂矿,
583,管材,
584,核心资产,
585,电网自动化,
586,商用载货车,
587,C2M,
588,畜禽养殖,
589,长三角自贸区,
590,短视频,
591,金融科技,
592,华为产业链,华为链
593,职业教育,
594,手机产业,手机
595,染料,
596,自主可控,
597,华为云,
598,钨矿,
599,新冠肺炎检测,
600,采掘,
601,EDA,
602,有机硅,
603,被动元件,
604,知识付费,
605,楼宇设备,
606,供应链金融,
607,重组,
608,世界杯,
609,电子系统组装,
610,云计算,
611,化学制品,
612,彩票,
613,调味品,
614,果蔬加工,
615,盐湖提锂,
616,餐饮,
617,口罩,
618,苹果产业链,苹果链
619,石墨烯,
620,安防监控,
621,小家电,
622,Micro LED,
623,工业金属,
624,海绵城市,
625,5G应用,
626,金融改革,
627,可降解塑料,
628,普钢,
629,互联网营销,
630,铜箔,
631,机械基础件,
632,今日头条,
633,天津自贸区,
634,无钴电池,
635,阿里巴巴,
636,风电设备,
637,创新药,
638,电动车,
639,混改,
640,新冠检测,
641,大飞机,
642,中国一汽,
643,盲盒,
644,中日韩自贸区,
645,西藏,
646,手机产业链,手机链
647,体育产业,体育
648,制冷剂,
649,垃圾发电,
650,地摊经济,
651,3D玻璃,
652,海航系,
653,轻工制造,
654,电子,
655,乳品,
656,工程机械,
657,园区开发,
658,金属新材料,
659,厨卫家电,
660,LED,
661,宁夏,
662,钨,
663,天津国企改革,
664,触摸屏,
665,水利水电建设,
666,广电,
667,在线教育,
668,东北振兴,
669,第三方支付,
670,OLED,
671,REITs,
672,金刚石(线),"金刚石,金刚线"
673,中压设备,
674,网络安全,
675,改性塑料,
676,健康中国,
677,基站,
678,网络切片,
679,新基建,
680,醋酸,
681,氮肥,
682,家具家居,
683,计算机应用,
684,血制品,
685,山东自贸区,
686,储能,
687,覆铜板,
688,水电,
689,锑,
690,电力,
691,水利,
692,饲料,
693,尾气治理,
694,新能源发电,
695,多业态零售,
696,边缘计算,
697,安徽国企改革,
698,打板,
699,互联网信息服务,
700,胎压监测,
701,智慧医疗,
702,煤电重组,
703,水产,
704,聚氨酯,
705,稀土磁材,
706,钴,
707,军民融合,
708,眼科,
709,电竞,
710,轮胎,
711,锂电隔膜,
712,互联网传媒,
713,镍矿,
714,三网融合,
715,4G,
716,工控自动化,
717,富士康,
718,钒钛,
719,医疗物资出口,
720,大数据,
721,印制电路板,
722,食品安全,
723,蔚来汽车,
724,航天装备,
725,合成革,
726,福建自贸区,
727,装配式建筑,
728,动物保健,
729,半导体材料,
730,生物识别,
731,男装,
732,粮油加工,
733,航天,
734,网络设备,
735,乙醇汽油,
736,东盟博览会,
737,国家大基金,
738,虫害防治,
739,摄像头,
740,化学原料药,
741,疫苗,
742,光伏设备,
743,冰箱,
744,天然气,
745,基建,
746,氨纶,
747,西部水泥,
748,一号文件,
749,蓝宝石,
750,食品综合,
751,养老产业,养老
752,航空运输,
753,硅锰,
754,集成电路,
755,液氯,
756,MiniLED,
757,折叠屏,
758,人造肉,
759,路桥施工,
760,券商,
761,系统重要性金融机构,
762,冰雪产业,冰雪
763,高低压设备,
764,周边,
765,特高压,
766,创投,
767,粤港澳大湾区,
768,新型煤化工,
769,移动转售,
770,透明工厂,
771,金改,
772,光通信,
773,抗核辐射,
774,自贸区,
775,超导,
776,农产品加工,
777,互联网医疗,
778,视听器材,
779,终端设备,
780,知识产权,
781,江苏国企改革,
782,计量仪表,
783,存储器,
784,上海自贸区,
785,半导体产业,半导体
786,芬太尼,
787,电子政务,
788,医疗服务,
789,种子生产,
790,虹膜识别,
791,散热,
792,超级细菌,
793,燃机发电,
794,血液制品,
795,教育信息化,
796,动漫,
797,抗癌,
798,农业种植,
799,辅料,
800,自动刹车,
801,涂料油漆油墨制造,
802,钴矿,
803,电子竞技,
804,建筑装饰,
805,医疗器械,
806,银行,
807,量子通信,
808,合资企业,
809,民营银行,
810,腾讯,
811,国产化创新,
812,黄金珠宝,
813,服装家纺,
814,旧改,
815,RCS,
816,半导体硅片,
817,车联网,
818,地下管廊,
819,基础建设,
820,湖南国企改革,
821,磷肥,
822,专业市场,
823,华为海思,
824,农机,
825,冶金矿采化工设备,
826,核高基,
827,环保设备,
828,烟草,
829,反关税,
830,生物制品,
831,国六排放标准,
832,家用轻工,
833,商业物业经营,
834,上海本地重组,
835,农用机械,
836,特钢,
837,干细胞,
838,白银,
839,业绩预增,
840,住房租赁,
841,光模块,
842,冷链物流,
843,家电零部件,
844,钢铁,
845,铅锌,
846,防护服,
847,丝绸,
848,高铁轨交,
849,深圳,
850,玻璃,
851,智能家居,
852,多元金融,
853,房产经纪,
854,元件,
855,体育,
856,家纺,
857,公用事业,
858,垃圾分类,
859,西安自贸区,
860,钛,
861,造纸,
862,在线旅游,
863,重卡,
864,百货,
865,电气自动化设备,
866,机器视觉,
867,环保工程及服务,
868,成渝特区,
869,体外诊断,
870,无人机,
871,智能交通,
872,IPV6,
873,乘用车,
874,华为鲲鹏,
875,风力发电,
876,热电,
877,360,
878,精准扶贫,
879,棉纺,
880,乳业(奶粉),"乳业,奶粉,乳业奶粉"
881,长江经济带,
882,西部大基建,
883,煤炭,
884,棉花,
885,新型城镇化,
886,轨道交通,
887,快递物流,
888,房地产开发,
889,电子零部件制造,
890,消防,
891,半导体设备,
892,铁矿石,
893,城轨建设,
894,石油贸易,
895,二胎政策,
896,玻璃制造,
897,特色小镇,
898,抗生素,
899,机构大额卖出,
900,能源互联网,
901,一般零售,
