,Company,Code,Concepts,Point_Leverage,Side_Leverage
86,美的集团,000333.SZ,电动车,0.07629839471199246,0.0014456862892733662
87,美的集团,000333.SZ,环保,0.07629839471199246,0.0045104737528531445
88,美的集团,000333.SZ,光伏,0.07629839471199246,0.000678594155690165
89,美的集团,000333.SZ,激光,0.07629839471199246,0.0007203491556908865
90,美的集团,000333.SZ,设计,0.07629839471199246,0.0010615482984875448
91,美的集团,000333.SZ,湖北,0.07629839471199246,0.002973837629924445
92,美的集团,000333.SZ,吉利,0.07629839471199246,0.00047875557664850817
93,美的集团,000333.SZ,方洪波,0.07629839471199246,0.014480354802001634
94,美的集团,000333.SZ,证券,0.07629839471199246,0.003555127128652735
95,美的集团,000333.SZ,网红,0.07629839471199246,0.002574574993258726
96,美的集团,000333.SZ,阿里巴巴,0.07629839471199246,0.0009808051697957935
97,美的集团,000333.SZ,广西,0.07629839471199246,0.0001790686001921979
98,美的集团,000333.SZ,汽车,0.07629839471199246,0.028423206625439006
99,美的集团,000333.SZ,短视频,0.07629839471199246,0.0013801085864672412
100,美的集团,000333.SZ,直播,0.07629839471199246,0.01657696676774897
101,美的集团,000333.SZ,工业自动化,0.07629839471199246,0.026089613275006796
102,美的集团,000333.SZ,家具,0.07629839471199246,0.00028719557251679213
103,美的集团,000333.SZ,特斯拉,0.07629839471199246,0.0014430160436009099
104,美的集团,000333.SZ,国企混改,0.07629839471199246,0.0007110026048657855
105,美的集团,000333.SZ,金融科技,0.07629839471199246,0.0003568053673486258
106,美的集团,000333.SZ,机场,0.07629839471199246,0.001386564806997729
107,美的集团,000333.SZ,彩电,0.07629839471199246,0.001471081572454984
108,美的集团,000333.SZ,知识产权,0.07629839471199246,0.0009452928886031487
109,美的集团,000333.SZ,摄像头,0.07629839471199246,0.0009687371487901393
110,美的集团,000333.SZ,地产,0.07629839471199246,0.0016395649323789696
111,美的集团,000333.SZ,车联网,0.07629839471199246,0.001639121362934179
112,美的集团,000333.SZ,期货,0.07629839471199246,0.00028464675171498306
113,美的集团,000333.SZ,口罩,0.07629839471199246,0.006838821423592817
114,美的集团,000333.SZ,医药,0.07629839471199246,0.0006037888274533255
115,美的集团,000333.SZ,新零售,0.07629839471199246,0.0010529910730848093
116,美的集团,000333.SZ,电子,0.07629839471199246,0.0018255863387218727
117,美的集团,000333.SZ,肺炎,0.07629839471199246,0.002020304042244865
118,美的集团,000333.SZ,医美,0.07629839471199246,0.00026860290028829677
119,美的集团,000333.SZ,机器人,0.07629839471199246,0.024415651363677432
120,美的集团,000333.SZ,银行,0.07629839471199246,8.953430009609894e-05
121,美的集团,000333.SZ,充电桩,0.07629839471199246,0.005182450289826307
122,美的集团,000333.SZ,制冷剂,0.07629839471199246,0.00047534667272439477
123,美的集团,000333.SZ,燃料电池,0.07629839471199246,0.0011637284222325744
124,美的集团,000333.SZ,智慧物流,0.07629839471199246,0.0013561908217001675
125,美的集团,000333.SZ,粤港澳大湾区,0.07629839471199246,0.0013557943426772878
126,美的集团,000333.SZ,人工智能,0.07629839471199246,0.0027604415150713373
127,美的集团,000333.SZ,小家电,0.07629839471199246,0.01666469590079441
128,美的集团,000333.SZ,新能源汽车,0.07629839471199246,0.04196371435370033
129,美的集团,000333.SZ,大数据,0.07629839471199246,0.008752443154100994
130,美的集团,000333.SZ,电机,0.07629839471199246,0.003470599206981815
131,美的集团,000333.SZ,智能制造,0.07629839471199246,0.005866056472394232
132,美的集团,000333.SZ,白色家电,0.07629839471199246,0.0027255234674455073
133,美的集团,000333.SZ,百度,0.07629839471199246,0.003696189090213071
134,美的集团,000333.SZ,汽车零部件,0.07629839471199246,0.0017314620525160597
135,美的集团,000333.SZ,新能源整车,0.07629839471199246,0.00047778136616035435
136,美的集团,000333.SZ,聚丙烯,0.07629839471199246,0.0002932827891456021
137,美的集团,000333.SZ,智能家居,0.07629839471199246,0.012509772905358329
138,美的集团,000333.SZ,物联网,0.07629839471199246,0.00629879750762051
139,美的集团,000333.SZ,周边,0.07629839471199246,8.953430009609894e-05
140,美的集团,000333.SZ,呼吸机,0.07629839471199246,0.00028799667174016566
141,美的集团,000333.SZ,家电,0.07629839471199246,0.054420662309856
142,美的集团,000333.SZ,家用电器,0.07629839471199246,0.000572610858103017
143,美的集团,000333.SZ,防护服,0.07629839471199246,0.0002932827891456021
144,美的集团,000333.SZ,空调,0.07629839471199246,0.06278008296653932
145,美的集团,000333.SZ,塑料,0.07629839471199246,0.001167375201256854
146,美的集团,000333.SZ,教育,0.07629839471199246,8.953430009609894e-05
147,美的集团,000333.SZ,移动互联网,0.07629839471199246,0.0006808365451719775
148,美的集团,000333.SZ,新基建,0.07629839471199246,0.0071323870368341785
149,美的集团,000333.SZ,影视,0.07629839471199246,0.00028799667174016566
150,美的集团,000333.SZ,储能,0.07629839471199246,0.00029143256334003374
151,美的集团,000333.SZ,智能物流,0.07629839471199246,0.0011517121470958126
152,美的集团,000333.SZ,洗衣机,0.07629839471199246,0.01446176742655169
153,美的集团,000333.SZ,芯片,0.07629839471199246,0.0013799791716879457
154,美的集团,000333.SZ,业绩预增,0.07629839471199246,0.00048167942106184364
155,美的集团,000333.SZ,核心资产,0.07629839471199246,8.953430009609894e-05
156,美的集团,000333.SZ,智能音箱,0.07629839471199246,0.0006802318140667957
157,美的集团,000333.SZ,半导体,0.07629839471199246,0.0006857695468333231
158,美的集团,000333.SZ,腾讯,0.07629839471199246,0.006654714460352267
159,美的集团,000333.SZ,珠三角,0.07629839471199246,0.0002944568547812095
160,美的集团,000333.SZ,智慧城市,0.07629839471199246,0.0012312972328686017
161,美的集团,000333.SZ,磁悬浮,0.07629839471199246,0.0005875978022542147
162,美的集团,000333.SZ,园林,0.07629839471199246,8.953430009609894e-05
163,美的集团,000333.SZ,基站,0.07629839471199246,0.0012312972328686015
164,美的集团,000333.SZ,乘用车,0.07629839471199246,0.000862990960048533
165,美的集团,000333.SZ,重组,0.07629839471199246,0.0003568053673486258
166,美的集团,000333.SZ,动力电池,0.07629839471199246,0.001468241494938689
167,美的集团,000333.SZ,边缘计算,0.07629839471199246,0.000866673948480912
168,美的集团,000333.SZ,深圳,0.07629839471199246,0.0005068941726503004
169,美的集团,000333.SZ,房地产,0.07629839471199246,0.0014458035775428374
170,美的集团,000333.SZ,冰箱,0.07629839471199246,0.015131794357568062
171,美的集团,000333.SZ,餐饮,0.07629839471199246,0.0009698175162297483
172,美的集团,000333.SZ,何享健,0.07629839471199246,0.020246587915117947
173,美的集团,000333.SZ,新材料,0.07629839471199246,0.0019150672534515255
174,美的集团,000333.SZ,机构调研,0.07629839471199246,0.0004921181272019026
175,美的集团,000333.SZ,基建,0.07629839471199246,0.0012312972328686015
176,美的集团,000333.SZ,新能源,0.07629839471199246,0.015048067895277756
177,美的集团,000333.SZ,金融,0.07629839471199246,8.953430009609894e-05
178,美的集团,000333.SZ,装配式建筑,0.07629839471199246,0.0002949230793416718
179,美的集团,000333.SZ,混改,0.07629839471199246,0.0010035716947135002
180,美的集团,000333.SZ,物流,0.07629839471199246,0.005014422610466224
181,美的集团,000333.SZ,疫苗,0.07629839471199246,0.0002852665896151188
182,美的集团,000333.SZ,酒店,0.07629839471199246,8.953430009609894e-05
183,美的集团,000333.SZ,高铁,0.07629839471199246,0.0002932827891456021
184,美的集团,000333.SZ,航母,0.07629839471199246,0.0004794753179529188
185,美的集团,000333.SZ,工业互联网,0.07629839471199246,0.02169313063241014
